{
        "en": {
            "languageList":[{"lang": "English", "key":"en"},{"lang": "ગુજરાતી", "key":"gu"},{"lang": "हिन्दी", "key":"hi"}],
            "fbsignup": "Signup with Facebook",
            "googleplussignup": "Signup with Google",
            "or": "or",
            "login": "Login",
            "signup": "Signup",
            "agreement": "By signing up, I agree to Kidorohealth's",
            "terms": "Terms of use",
            "and": "and",
            "privacy": "Privacy Policy",
            "dot": ".",
            "welcome": "Welcome",
            "loginDetails": "My Login Details !!",
            "forgotCode": "Forgot Kidoro Code?",
            "mobile": "Mobile Number",
            "unqkidcode": "Unique Kidoro Code",
            "frgtkid": "Forgot Kidoro Id",
            "entregstrdnmbr": "Please enter your Registered Number!!",
            "send": "Send",
            "prflinfo": "Profile Information",
            "intrduceyrslf": "Please Introduce Yourself !!",
            "fname": "Full Name",
            "kidbrthstatus": "Kidor Birth Status",
            "email": "Email Id",
            "next": "Next",
            "skip": "Skip",
            "selctdueDate": "Select due date",
            "selctdob": "Birth date of baby",
            "birthpopup": "Baby Birth Status",
            "verification": "Verification",
            "verifymobileno": "We are verifying your Mobile Number!!",
            "manuallyentrotp": "Manually Enter OTP",
            "cnf": "Confirm",
            "resendotp": "Resend OTP",
            "connectwidprtnr": "Your Kidoro Code!!",
            "kidorocode": "Kidoro Code",
            "sharecode": "Share",
            "entrprtnrcode": "Enter Partner Code",
            "done": "Done",
            "welcometokidoroHlth": "Welcome to Kidoro Health",
            "home": "Home",
            "apntmnts": "My Appointments",
            "aboutus": "About Us",

            "aboutusweat": "We at",
            "companyname": "Tarantula Labs",
            "appname": "Kidoro Health",
            "cmpnydetails": "want people to know fact from pure Web fiction; we seek to create a repository of facts culled from verified sources—a one-stop platform for the information you need. At the same time, we want to present it in an accessible, easily comprehensible manner, and we are aided in this endeavor by the power of design. We believe learning can be made fun, and that’s what we are here to do.",
            "appdetails": "Maternity is one of the most significant stage in a parent’s life, where what matters is fostering the unborn with immense care. Maternity is above the natural phenomena, it’s about experiencing an exclusive journey of parenthood. Comparing to the good old days where the mothers or even grandmother contributed in upbringing a child with strict traditional disciplines, today parents scout for the latest and most updated available systems for the child to step into.",
            "applessdetails": "Welcome to the world of",
            "appmoredetails": ", where we’ll guide you through the various stages of healthcare for kids in a simple but accurate manner. As would-be/new parents, we know you have a lot of questions and doubts in your mind. Trust us as partners in this journey, and we will take you through all the answers and shatter the fallacies that abound. We understand that, being beginners, we may not have answers to all your queries. Please let us know about any such questions through the feedback section, and we’ll address it as soon as possible. So, let the journey begin!",

            "rateus": "Rate Us",
            "signout": "Sign Out",
            "loginorsignup": "Log In or Sign Up",
            "logintoviewapt": "Please Login to View Appointment",
            "cancel": "Cancel",
            "bookantrapt": "Book another appointment",
            "share": "Share",
            "aptdtls": "Appointment Details",
            "aptext": "Hospital Extention:",
            "calldoc": "Call Doctor",
            "urdetails": "Your Details",
            "mombuzz": "Mom Buzz",
            "doctors": "Doctors",
            "chemist": "Chemist",
            "labtest": "Lab Test (beta)",
            "favrtes": "Favourites",
            "favlist": "Fav List",
            "srchchemists": "Search Chemists by Name and Location",
            "callnow": "Call Now",
            "ordernow": "Order Now",
            "diagnostic": "Lab Test",
            "srchlabtest": "Search Lab Tests",
            "commontest": "Common Test",
            "labs": "Labs",
            "srchlabs": "Search Labs by Name and Location",
            "labname": "Lab Name",
            "labtiming": "Lab Timing",
            "totalamt": "Total Amount",
            "labtests": "Lab Tests",
            "showmore": "Show more",
            "showfewer": "Show fewer",
            "labaddress": "Lab Address",
            "addloc": "Add Location",
            "srchlocality": "Search Locality",
            "srchdoctrs": "Search Doctors by Name and Location",
            "booknow": "Book Now",
            "exp": "Experience:",
            "yrs": "years",
            "rupeeSymbol": "&#8377;",
            "clinicname": "Clinic Name",
            "clinictiming": "Clinic Timing",
            "today": "Today:",
            "consultantfee": "Consultation Fee",
            "clinicreview": "Clinic Review",
            "clinicfeatures": "Special Features",
            "clinicsrvices": "Clinic Services",
            "clinicaddress": "Clinic Address",
            "selcttimeslot": "Select a Time Slot",
            "mrng": "Morning",
            "aftrnoon": "Afternoon",
            "evng": "Evening",
            "direction": "Direction",
            "prfl": "Profile",
            "me": "Me",
            "kidoro": "Kidoro",
            "cnfprtnradd": "Are you sure you want to add",
            "asurprtnr": "as your partner ?",
            "partner": "Partner",
            "name": "Name",
            "phone": "Phone",
            "kidID": "Kidoro Id",
            "babyname": "Baby Name",
            "babyage": "Baby Age",
            "prtnrID": "Partner Id",
            "prtnremail": "Partner Email Id",
            "prtnrmobile": "Partner Mobile Number",
            "exitTxt": "Exit",
            "exitPopUpTxt": "Are you sure you want to exit ?",
            "noTxt": "NO",
            "yesTxt": "YES",
            "updateTxt": "Update",
            "nointernet": "No Internet",
            "connecttointernet": "You are currently offline. Please connect to Internet and try again.",
            "sometngwentwrng": "Oops! Something went wrong.",
            "okTxt": "OK",
            "plslogintousethisfeature": "Please Login to use this feature.",
            "discountmessage": "Congratulations! You are qualifed for % discount.",
            "nofavfeedselcted": "No Favourite Feed Selected.",
            "loadingdoctrs": "Loading Doctors, Please Wait..",
            "alllocality": "All Locality",
            "closedDctrnotavlablemsg": "Closed! Doctor is not available",
            "addphoto": "Add a photo",
            "noAptmntexists": "No Appointment exists",
            "cancelApt": "Cancel Appointment",
            "cancelAptconfirmTxt": "Are you sure you want to cancel this appointment ?",
            "mobilenoalredyregistrd": "Mobile number already registered!",
            "incorrectotp": "Incorrect OTP!",
            "prtnridnotexists": "Partner ID Does Not Exists!",
            "loadinglabtest": "Loading Lab Tests, Please Wait..",
            "callExtTxt": "Call Extention",
            "dialExtTxt": "Please dial the extension",
            "loadingchemists":"Loading Chemists, Please Wait..",
            "loadinglabs": "Loading Labs, Please Wait..",
            "callTxt": "CALL",
            "invalidcredntals": "Invalid Credentials!",
            "moblenotregstrd": "Mobile number not registered!",
            "language": "Language",
            "selectalang": "Select a Language",
            "closeTxt": "Close",
            "oops": "Oops",
            "selecttimeslot": "Select Time Slot.",
            "phrmcyname": "Pharmacy Name",
            "phrmcytming": "Pharmacy Timing",
            "discount": "Discount",
            "phrmcyadrs": "Pharmacy Address",
            "cptrprscrptn": "Upload",
            "prescription": "Prescription",
            "address": "Address",
            "placeorder": "Place Order",
            "ordercnf": "Order Confirmation",
            "urmedwillbdelvrdbytdsy": "Your medicine will be delivered by today.",
            "urtstasptmnthsbncnfrmd": "Your Test appointment has been confirmed",
            "foranyfrthrquery": "For any further queries",
            "callusat": "call us at",
            "writeusat": "write us at",
            "supportphonetodisplay": "+91-7930447077",
            "supportphonetocall": "07930447077",
            "supportmail": "support@kidorohealth.com",
            "Name": "Name",
            "Pincode": "Pincode",
            "Address": "Address",
            "Landmark": "Landmark",
            "City": "City",
            "State": "State",
            "phnnumbr": "Phone Number",
            "age": "Age",
            "gender": "Gender",
            "Nameplchdr": "Aditya Pratap Singh",
            "Pincodeplchdr": "382007",
            "Addressplchdr": "A-301, Shree rang oasis, Gift city road",
            "Landmarkplchdr": "Near Dholakuan",
            "Cityplchdr": "Gandhinagar",
            "Stateplchdr": "Gujarat",
            "phnnumbrplchdr": "9723916357",
            "ageplchdr": "26",
            "genderplchdr": "M/F",
            "noofdays": "No. of Days",
            "day": "day",
            "days": "days",
            "allinputrqrd": "All input is required",
            "prescpnName": "Prescription Name",
            "presnamerqrd": "Enter Prescription Name",
            "uploadprescptn": "Upload Prescription",
            "areyousuretouploadpres": "Are you sure, you want to upload the Prescription?",
            "medicalreports": "My Orders",
            "medicalreportdetails" : "Order Details",
            "gyno": "Gynecologist",
            "paed": "Pediatrician",
            "search": "Search",
            "medReportNotAvlble": "No Medical Report exists",
            "logintoviewmedreprt": "Please Login to View Order",
            "commonPhoneNumber" : "07930256873",
            "ReplyToEmail": "support@kidorohealth.com",
            "fromEmail": "info@kidorohealth.com",
            "bccAddress": "orders@kidorohealth.com",
            "aptmessage": "For any further query call 07930447077. Install free app at https://goo.gl/R2TPjw",
            "entrcouponCode": "Enter Coupon Code",
            "couponCode": "Coupon Code",
            "invalidcouponcode": "Invalid Coupon Code",
            "couponcodealrdyused": "Coupon Code is already used",
            "grpChat": "Group Chat",
            "kidoroChat": "Kidoro Chat",
            "chat": "Chat",
            "plslogintousekidorochat": "Please Login to Use Kidoro Chat",
            "noNotifications":"No new Notification",
            "typeurmsg": "Type your message",
            "prescrptn": "My Prescriptions",
            "uploadedby": "UPLOADED BY",
            "addnew": "Add New",
            "plslogintoviewpres": "Please login to view Prescription",
            "logintochat": "Please Login to Use Kidoro Chat",
            "addmore": "Add More",
            "couponTypeDoctor":"DoctorCoupon",
            "couponTypeMedicine":"MedicineCoupon"

          }
}
